#cell	chip	channel
1	2	46
2	2	41
3	2	56
4	2	54
5	2	25
6	2	6
7	2	36
8	1	45
9	2	16
10	2	8
11	2	29
12	2	33
13	2	42
14	2	52
15	2	17
16	2	9
17	2	28
18	1	46
19	2	45
20	2	24
21	2	37
22	2	58
23	2	21
24	2	38
25	2	48
26	2	18
27	1	49
28	1	48
29	2	4
30	2	53
31	2	60
32	2	44
33	2	13
34	2	50
35	2	40
36	1	55
37	1	52
38	1	50
39	1	40
40	2	12
41	2	20
42	2	10
43	2	49
44	2	0
45	2	26
46	2	5
47	2	30
48	1	57
49	1	53
50	1	38
51	1	37
52	2	34
53	2	57
54	2	61
55	2	14
56	2	32
57	2	22
58	2	1
59	1	2
60	1	60
61	1	54
62	1	56
63	1	44
64	1	41
65	1	36
66	3	50
67	3	40
68	3	9
69	3	46
70	3	7
71	3	54
72	2	62
73	2	2
74	2	55
75	1	62
76	1	61
77	1	58
78	1	42
79	1	28
80	1	25
81	3	8
82	3	17
83	3	29
84	3	33
85	3	36
86	3	48
87	3	5
88	1	4
89	1	5
90	1	0
91	1	30
92	1	32
93	1	34
94	1	26
95	1	24
96	3	6
97	3	13
98	3	0
99	3	24
100	3	55
101	3	28
102	3	1
103	3	38
104	0	32
105	1	1
106	1	6
107	1	8
108	1	33
109	1	29
110	1	21
111	1	22
112	3	42
113	3	44
114	3	21
115	3	41
116	3	57
117	3	61
118	3	26
119	0	28
120	0	61
121	0	57
122	1	9
123	1	16
124	1	17
125	1	20
126	1	18
127	3	34
128	3	60
129	3	62
130	3	12
131	3	32
132	3	2
133	0	46
134	0	1
135	0	30
136	0	55
137	0	49
138	1	14
139	1	12
140	1	13
141	3	56
142	3	58
143	3	52
144	3	10
145	3	53
146	3	30
147	0	52
148	0	5
149	0	4
150	0	50
151	0	12
152	0	6
153	0	26
154	0	8
155	1	10
156	3	25
157	3	37
158	3	49
159	3	16
160	0	44
161	0	10
162	0	20
163	0	18
164	0	13
165	0	33
166	0	22
167	0	53
168	0	14
169	3	22
170	3	18
171	3	20
172	0	48
173	0	7
174	0	21
175	0	42
176	0	38
177	0	16
178	0	45
179	0	0
180	3	14
181	3	4
182	0	56
183	0	9
184	0	40
185	0	60
186	0	62
187	0	29
188	0	41
189	0	2
190	3	45
191	0	17
192	0	54
193	0	58
194	0	25
195	0	24
196	0	37
197	0	36
198	0	34
